{
  "npmClient": "pnpm",
  "useWorkspaces": true,
  "packages": [
    "packages/*"
  ],
  "command": {
    "version": {
      "exact": true
    },
    "publish": {
      "npmClient": "npm",
      "allowBranch": [
        "canary"
      ],
      "registry": "https://registry.npmjs.org/"
    }
  },
  "version": "13.4.9-canary.3"
}
